<?xml version="1.0" encoding="UTF-8" standalone="no"?>
<!-- Created with Inkscape (http://www.inkscape.org/) -->

<svg
   xmlns:dc="http://purl.org/dc/elements/1.1/"
   xmlns:cc="http://creativecommons.org/ns#"
   xmlns:rdf="http://www.w3.org/1999/02/22-rdf-syntax-ns#"
   xmlns:svg="http://www.w3.org/2000/svg"
   xmlns="http://www.w3.org/2000/svg"
   xmlns:sodipodi="http://sodipodi.sourceforge.net/DTD/sodipodi-0.dtd"
   xmlns:inkscape="http://www.inkscape.org/namespaces/inkscape"
   id="svg2"
   version="1.1"
   inkscape:version="0.48+devel r12701"
   width="400"
   height="348"
   viewBox="0 0 400 348"
   sodipodi:docname="General_warning_hazard.svg">


<metadata
	id="metadata8">
	<rdf:RDF><cc:Work rdf:about=""><dc:format>image/svg+xml</dc:format>
	<dc:type rdf:resource="http://purl.org/dc/dcmitype/StillImage" />
	<dc:title>hazard sign</dc:title>
	<dc:date>12/23/2013</dc:date>
	<dc:creator><cc:Agent><dc:title>edited by Paul Sherman</dc:title></cc:Agent></dc:creator>
	<dc:rights><cc:Agent><dc:title>PD</dc:title></cc:Agent></dc:rights><dc:publisher><cc:Agent><dc:title>WPClipart</dc:title></cc:Agent></dc:publisher><dc:subject><rdf:Bag><rdf:li>hazard</rdf:li><rdf:li>sign</rdf:li></rdf:Bag></dc:subject><cc:license rdf:resource="http://creativecommons.org/publicdomain/zero/1.0/" /><dc:description>converted from EPS</dc:description><dc:source>http://www.aem.org/SRT/Safety/PictorialDatabase/Report.asp</dc:source></cc:Work><cc:License rdf:about="http://creativecommons.org/publicdomain/zero/1.0/"><cc:permits rdf:resource="http://creativecommons.org/ns#Reproduction" /><cc:permits rdf:resource="http://creativecommons.org/ns#Distribution" /><cc:permits rdf:resource="http://creativecommons.org/ns#DerivativeWorks" /></cc:License></rdf:RDF>

</metadata>
  <defs
     id="defs6" />
  <sodipodi:namedview
     pagecolor="#ffffff"
     bordercolor="#666666"
     borderopacity="1"
     objecttolerance="10"
     gridtolerance="10"
     guidetolerance="10"
     inkscape:pageopacity="0"
     inkscape:pageshadow="2"
     inkscape:window-width="731"
     inkscape:window-height="480"
     id="namedview4"
     showgrid="false"
     inkscape:zoom="0.67816092"
     inkscape:cx="200"
     inkscape:cy="174"
     inkscape:window-x="0"
     inkscape:window-y="0"
     inkscape:window-maximized="0"
     inkscape:current-layer="svg2" />
  <path
     style="fill:#000000"
     d="M 12.50429,346.69119 C 3.3069077,341.20149 0,336.5319 0,329.03423 0,324.14211 1.5533635,320.3967 8.7237054,308 11.892507,302.5215 21.960835,284.9712 24.756716,280.05253 26.14714,277.60642 28.570689,273.42412 30.14238,270.75852 31.714071,268.09293 33,265.75278 33,265.5582 c 0,-0.19459 1.729515,-3.21228 3.843366,-6.706 2.113851,-3.49371 4.977654,-8.3772 6.364007,-10.8522 2.171686,-3.87702 19.75615,-34.70126 24.815673,-43.5 1.468836,-2.55437 6.542883,-11.39349 15.212185,-26.5 1.104716,-1.925 5.498862,-9.575 9.764769,-17 8.1193,-14.132 10.63702,-18.55561 14.79802,-26 1.38339,-2.475 4.24476,-7.35849 6.35861,-10.8522 2.11386,-3.49372 3.84337,-6.49403 3.84337,-6.66738 0,-0.17334 2.025,-3.74031 4.5,-7.92659 2.475,-4.18629 4.5,-7.77748 4.5,-7.98043 0,-0.20294 1.72951,-3.227484 3.84337,-6.721196 C 132.95722,91.358492 135.81941,86.475 137.20379,84 143.32003,73.065395 145.49265,69.269791 153.62585,55.310346 158.37179,47.164656 163.38703,38.475 164.77085,36 172.20888,22.696825 178.56983,12.420589 181.27014,9.3451099 185.91791,4.0515967 191.44023,1.5764279 198.5,1.6224947 c 10.9635,0.07154 16.69658,5.0631958 27.73542,24.1485653 3.99552,6.907965 8.22249,14.172963 9.39327,16.144438 1.17079,1.971476 3.81333,6.509502 5.87231,10.084502 8.81533,15.305965 8.64776,15.017361 17.83426,30.716895 3.60993,6.169292 7.65532,13.144292 8.98975,15.5 2.14157,3.780575 20.62804,35.614435 36.45922,62.783105 3.04461,5.225 6.97232,11.975 8.72824,15 1.75592,3.025 5.55537,9.55 8.44323,14.5 2.88785,4.95 6.27244,10.8 7.5213,13 1.24886,2.2 9.35573,16.15 18.01527,31 8.65953,14.85 17.11698,29.475 18.79432,32.5 1.67735,3.025 4.12322,7.21685 5.43528,9.31521 1.31205,2.09837 3.20471,5.24837 4.20591,7 6.52143,11.40953 13.60438,23.69854 15.38016,26.68479 3.34737,5.62911 6.627,12.39931 6.66079,13.75 0.0172,0.6875 0.48127,1.25 1.03127,1.25 1.83176,0 1.07896,8.79625 -1.08857,12.71958 -2.60205,4.70984 -3.48201,5.5898 -8.19185,8.19185 L 385.93917,348 200.21958,347.94119 c -141.813055,-0.0449 -186.191392,-0.34042 -187.71529,-1.25 z M 367.33662,321.25 c 0.25006,-0.4125 -3.61791,-7.725 -8.59549,-16.25 -4.97758,-8.525 -10.61066,-18.2 -12.51795,-21.5 -1.90729,-3.3 -4.26176,-7.35 -5.23216,-9 -0.9704,-1.65 -4.22781,-7.275 -7.23868,-12.5 -5.09437,-8.84064 -49.83887,-85.8252 -53.76229,-92.5 -0.96987,-1.65 -4.35462,-7.5 -7.52167,-13 -6.15821,-10.69453 -11.62236,-20.13607 -14.46838,-25 -0.96546,-1.65 -3.44046,-5.925 -5.5,-9.5 -2.05954,-3.575 -4.53999,-7.85 -5.51212,-9.5 C 246.01575,110.85 240.62121,101.625 235,92 229.37879,82.375 223.98588,73.15 223.01575,71.5 220.48943,67.203249 210.22594,49.309037 207.24271,44 c -1.39074,-2.475 -3.29106,-5.625 -4.22294,-7 -0.93188,-1.375 -1.97842,-3.2875 -2.32566,-4.25 -1.35167,-3.746678 -3.7456,-1.259416 -11.06847,11.5 -4.18243,7.2875 -8.27645,14.375 -9.09783,15.75 C 176.66127,66.472665 166,85.153228 166,85.455472 c 0,0.187066 -1.72951,3.198612 -3.84337,6.692324 -2.11385,3.493712 -4.97144,8.377204 -6.35019,10.852204 -1.37876,2.475 -9.60251,16.84364 -18.275,31.93031 -8.67248,15.08667 -16.67808,29.03667 -17.79022,31 C 117.20667,170.40474 117.46717,169.95013 98.5,203 89.819831,218.125 81.826497,232.075 80.737035,234 79.647573,235.925 75.265907,243.575 71,251 c -4.265907,7.425 -8.641637,15.075 -9.723845,17 -1.082207,1.925 -8.138607,14.21987 -15.680888,27.32193 -7.542281,13.10206 -13.95984,24.46456 -14.261242,25.25 C 30.860519,321.80587 53.630651,322 198.83399,322 c 92.42639,0 168.25257,-0.3375 168.50263,-0.75 z M 191,301.64606 c -12.61832,-6.44263 -14.65056,-23.79758 -3.86747,-33.0275 8.2086,-7.02626 18.83528,-6.70339 26.33893,0.80027 8.52784,8.52784 8.25855,20.88754 -0.63614,29.19706 -6.17983,5.77327 -14.2652,6.8953 -21.83532,3.03017 z m 2.67811,-51.13021 c -6.7865,-3.53969 -8.66172,-8.82184 -11.72097,-33.01585 -2.30461,-18.22594 -3.25043,-25.40463 -5.00663,-38 -0.6135,-4.4 -1.4921,-11.15 -1.95245,-15 -0.46035,-3.85 -1.41855,-10.825 -2.12934,-15.5 -2.04276,-13.43562 -1.70664,-22.70215 1.00483,-27.70248 7.96046,-14.68012 27.03204,-20.2979 40.12645,-11.81974 12.83603,8.31086 15.7794,16.71643 12.96402,37.02222 -0.5338,3.85 -1.40199,10.375 -1.92932,14.5 -6.36721,49.80768 -9.81495,74.47018 -11.05387,79.0712 -2.56122,9.51165 -12.39359,14.56987 -20.30272,10.44465 z"
     id="path4064"
     inkscape:connector-curvature="0" />
</svg>
